<svg width="409" height="408" viewBox="0 0 409 408" fill="none" xmlns="http://www.w3.org/2000/svg">
<path d="M205 84C138.633 84 85 137.783 85 204C85 270.217 138.783 324 205 324C271.367 324 325 270.217 325 204C325 137.783 271.217 84 205 84Z" fill="#DADADA"/>
<path d="M239.782 42.1L231.682 42.1L231.682 20.6C231.682 13.7 226.082 8.2 219.282 8.2L189.982 8.2C183.082 8.2 177.582 13.8 177.582 20.6L177.582 42.1L169.482 42.1L169.482 20.6C169.382 9.2 178.582 1.98904e-07 189.982 4.48059e-07L219.182 1.08625e-06C230.582 1.3354e-06 239.782 9.2 239.782 20.6L239.782 42.1Z" fill="#001C3B"/>
<path d="M187.182 14.5L221.982 14.5C223.282 14.5 224.282 15.5 224.282 16.8L224.282 51.6C224.282 52.9 223.282 53.9 221.982 53.9L187.182 53.9C185.882 53.9 184.882 52.9 184.882 51.6L184.882 16.8C184.882 15.5 185.882 14.5 187.182 14.5Z" fill="#004FA6"/>
<path d="M343.932 114.36L338.205 108.632L353.407 93.4295C358.286 88.5505 358.216 80.7016 353.407 75.8933L332.689 55.175C327.81 50.296 319.961 50.3667 315.153 55.175L299.95 70.3778L294.223 64.6503L309.425 49.4475C317.416 41.3157 330.426 41.3157 338.487 49.3768L359.135 70.0243C367.196 78.0853 367.196 91.0961 359.135 99.1571L343.932 114.36Z" fill="#001C3B"/>
<path d="M326.255 57.65L350.862 82.2573C351.781 83.1765 351.781 84.5907 350.862 85.51L326.255 110.117C325.335 111.037 323.921 111.037 323.002 110.117L298.395 85.51C297.475 84.5907 297.475 83.1765 298.395 82.2573L323.002 57.65C323.921 56.7307 325.335 56.7307 326.255 57.65Z" fill="#004FA6"/>
<path d="M42.7819 168.8L42.7819 176.9L21.2819 176.9C14.3819 176.9 8.88188 182.5 8.88188 189.3L8.88188 218.6C8.88188 225.5 14.4819 231 21.2819 231L42.7819 231L42.7819 239.1L21.2819 239.1C9.88189 239.2 0.681885 230 0.681884 218.6L0.681884 189.4C0.681883 178 9.88188 168.8 21.2819 168.8L42.7819 168.8Z" fill="#001C3B"/>
<path d="M15.1819 221.4L15.1819 186.6C15.1819 185.3 16.1819 184.3 17.4819 184.3L52.2819 184.3C53.5819 184.3 54.5819 185.3 54.5819 186.6L54.5819 221.4C54.5819 222.7 53.5819 223.7 52.2819 223.7L17.4819 223.7C16.1819 223.7 15.1819 222.7 15.1819 221.4Z" fill="#004FA6"/>
<path d="M115.042 64.6497L109.314 70.3773L94.1114 55.1745C89.2324 50.2955 81.3835 50.3662 76.5751 55.1745L55.8569 75.8927C50.9779 80.7718 51.0486 88.6206 55.8569 93.429L71.0597 108.632L65.3321 114.359L50.1293 99.1565C41.9976 91.1662 41.9976 78.1555 50.0586 70.0944L70.7062 49.4469C78.7672 41.3859 91.7779 41.3859 99.839 49.4469L115.042 64.6497Z" fill="#001C3B"/>
<path d="M58.3318 82.3273L82.9391 57.72C83.8583 56.8008 85.2726 56.8008 86.1918 57.72L110.799 82.3273C111.718 83.2466 111.718 84.6608 110.799 85.58L86.1918 110.187C85.2726 111.107 83.8583 111.107 82.9391 110.187L58.3318 85.58C57.4126 84.6608 57.4126 83.2466 58.3318 82.3273Z" fill="#004FA6"/>
<path d="M169.481 365.8L177.581 365.8L177.581 387.3C177.581 394.2 183.181 399.7 189.981 399.7L219.281 399.7C226.181 399.7 231.681 394.1 231.681 387.3L231.681 365.8L239.781 365.8L239.781 387.3C239.881 398.7 230.681 407.9 219.281 407.9L190.081 407.9C178.681 407.9 169.481 398.7 169.481 387.3L169.481 365.8Z" fill="#001C3B"/>
<path d="M222.081 393.4L187.281 393.4C185.981 393.4 184.981 392.4 184.981 391.1L184.981 356.3C184.981 355 185.981 354 187.281 354L222.081 354C223.381 354 224.381 355 224.381 356.3L224.381 391.1C224.381 392.4 223.381 393.4 222.081 393.4Z" fill="#004FA6"/>
<path d="M65.3315 293.54L71.0591 299.268L55.8563 314.471C50.9772 319.35 51.0479 327.198 55.8562 332.007L76.5745 352.725C81.4535 357.604 89.3024 357.533 94.1107 352.725L109.314 337.522L115.041 343.25L99.8383 358.453C91.848 366.584 78.8372 366.584 70.7762 358.523L50.1287 337.876C42.0677 329.815 42.0677 316.804 50.1287 308.743L65.3315 293.54Z" fill="#001C3B"/>
<path d="M83.0092 350.25L58.4018 325.643C57.4826 324.724 57.4826 323.309 58.4018 322.39L83.0092 297.783C83.9284 296.864 85.3426 296.864 86.2618 297.783L110.869 322.39C111.788 323.309 111.788 324.724 110.869 325.643L86.2618 350.25C85.3426 351.169 83.9284 351.169 83.0092 350.25Z" fill="#004FA6"/>
<path d="M366.482 239.1L366.482 231L387.982 231C394.882 231 400.382 225.4 400.382 218.6L400.382 189.3C400.382 182.4 394.782 176.9 387.982 176.9L366.482 176.9L366.482 168.8L387.982 168.8C399.382 168.7 408.582 177.9 408.582 189.3L408.582 218.5C408.582 229.9 399.382 239.1 387.982 239.1L366.482 239.1Z" fill="#001C3B"/>
<path d="M394.082 186.501L394.082 221.301C394.082 222.601 393.082 223.601 391.782 223.601L356.982 223.601C355.682 223.601 354.682 222.601 354.682 221.301L354.682 186.501C354.682 185.201 355.682 184.2 356.982 184.2L391.782 184.201C393.082 184.201 394.082 185.201 394.082 186.501Z" fill="#004FA6"/>
<path d="M294.222 343.25L299.95 337.523L315.152 352.726C320.031 357.605 327.88 357.534 332.689 352.726L353.407 332.007C358.286 327.128 358.215 319.279 353.407 314.471L338.204 299.268L343.932 293.541L359.134 308.743C367.266 316.734 367.266 329.745 359.205 337.806L338.558 358.453C330.497 366.514 317.486 366.514 309.425 358.453L294.222 343.25Z" fill="#001C3B"/>
<path d="M350.932 325.573L326.325 350.18C325.405 351.099 323.991 351.099 323.072 350.18L298.465 325.573C297.545 324.653 297.545 323.239 298.465 322.32L323.072 297.713C323.991 296.793 325.405 296.793 326.325 297.713L350.932 322.32C351.851 323.239 351.851 324.653 350.932 325.573Z" fill="#004FA6"/>
</svg>
