<svg width="245" height="407" viewBox="0 0 245 407" fill="none" xmlns="http://www.w3.org/2000/svg">
<path d="M120.8 49.2C130.796 49.2 138.9 41.0964 138.9 31.1C138.9 21.1037 130.796 13 120.8 13C110.804 13 102.7 21.1037 102.7 31.1C102.7 41.0964 110.804 49.2 120.8 49.2Z" fill="#001C3B"/>
<path d="M98.7 34.6C98.5 33.4 98.4 32.3 98.4 31.1C98.4 18.7 108.4 8.70001 120.8 8.70001C133.2 8.70001 143.2 18.7 143.2 31.1C143.2 32.3 143.1 33.5 142.9 34.6H151.7C151.8 33.4 151.9 32.3 151.9 31.1C151.9 13.9 138 0 120.8 0C103.6 0 89.7 13.9 89.7 31.1C89.7 32.3 89.8 33.5 89.9 34.6H98.7Z" fill="#004FA6"/>
<path d="M213.8 218.2C223.796 218.2 231.9 210.096 231.9 200.1C231.9 190.104 223.796 182 213.8 182C203.804 182 195.7 190.104 195.7 200.1C195.7 210.096 203.804 218.2 213.8 218.2Z" fill="#001C3B"/>
<path d="M210.2 178C211.4 177.8 212.5 177.7 213.7 177.7C226.1 177.7 236.1 187.7 236.1 200.1C236.1 212.5 226.1 222.5 213.7 222.5C212.5 222.5 211.3 222.4 210.2 222.2V231C211.4 231.1 212.5 231.2 213.7 231.2C230.9 231.2 244.8 217.3 244.8 200.1C244.8 182.9 230.9 169 213.7 169C212.5 169 211.3 169.1 210.2 169.2V178Z" fill="#004FA6"/>
<path d="M213.8 129.2C223.796 129.2 231.9 121.096 231.9 111.1C231.9 101.104 223.796 93 213.8 93C203.804 93 195.7 101.104 195.7 111.1C195.7 121.096 203.804 129.2 213.8 129.2Z" fill="#001C3B"/>
<path d="M210.2 89C211.4 88.8 212.5 88.7 213.7 88.7C226.1 88.7 236.1 98.7 236.1 111.1C236.1 123.5 226.1 133.5 213.7 133.5C212.5 133.5 211.3 133.4 210.2 133.2V142C211.4 142.1 212.5 142.2 213.7 142.2C230.9 142.2 244.8 128.3 244.8 111.1C244.8 93.9 230.9 80 213.7 80C212.5 80 211.3 80.1 210.2 80.2V89Z" fill="#004FA6"/>
<path d="M213.8 307C223.796 307 231.9 298.896 231.9 288.9C231.9 278.904 223.796 270.8 213.8 270.8C203.804 270.8 195.7 278.904 195.7 288.9C195.7 298.896 203.804 307 213.8 307Z" fill="#001C3B"/>
<path d="M210.2 266.8C211.4 266.6 212.5 266.5 213.7 266.5C226.1 266.5 236.1 276.5 236.1 288.9C236.1 301.3 226.1 311.3 213.7 311.3C212.5 311.3 211.3 311.2 210.2 311V319.8C211.4 319.9 212.5 320 213.7 320C230.9 320 244.8 306.1 244.8 288.9C244.8 271.7 230.9 257.8 213.7 257.8C212.5 257.8 211.3 257.9 210.2 258V266.8Z" fill="#004FA6"/>
<path d="M31.1 218.2C41.0963 218.2 49.2 210.096 49.2 200.1C49.2 190.104 41.0963 182 31.1 182C21.1036 182 13 190.104 13 200.1C13 210.096 21.1036 218.2 31.1 218.2Z" fill="#001C3B"/>
<path d="M34.6 178C33.4 177.8 32.3 177.7 31.1 177.7C18.7 177.7 8.70001 187.7 8.70001 200.1C8.70001 212.5 18.7 222.5 31.1 222.5C32.3 222.5 33.5 222.4 34.6 222.2V231C33.4 231.1 32.3 231.2 31.1 231.2C13.9 231.2 0 217.3 0 200.1C0 182.9 13.9 169 31.1 169C32.3 169 33.5 169.1 34.6 169.2V178Z" fill="#004FA6"/>
<path d="M31.1 129.2C41.0963 129.2 49.2 121.096 49.2 111.1C49.2 101.104 41.0963 93 31.1 93C21.1036 93 13 101.104 13 111.1C13 121.096 21.1036 129.2 31.1 129.2Z" fill="#001C3B"/>
<path d="M34.6 89C33.4 88.8 32.3 88.7 31.1 88.7C18.7 88.7 8.70001 98.7 8.70001 111.1C8.70001 123.5 18.7 133.5 31.1 133.5C32.3 133.5 33.5 133.4 34.6 133.2V142C33.4 142.1 32.3 142.2 31.1 142.2C13.9 142.2 0 128.3 0 111.1C0 93.9 13.9 80 31.1 80C32.3 80 33.5 80.1 34.6 80.2V89Z" fill="#004FA6"/>
<path d="M31.1 307C41.0963 307 49.2 298.896 49.2 288.9C49.2 278.904 41.0963 270.8 31.1 270.8C21.1036 270.8 13 278.904 13 288.9C13 298.896 21.1036 307 31.1 307Z" fill="#001C3B"/>
<path d="M34.6 266.8C33.4 266.6 32.3 266.5 31.1 266.5C18.7 266.5 8.70001 276.5 8.70001 288.9C8.70001 301.3 18.7 311.3 31.1 311.3C32.3 311.3 33.5 311.2 34.6 311V319.8C33.4 319.9 32.3 320 31.1 320C13.9 320 0 306.1 0 288.9C0 271.7 13.9 257.8 31.1 257.8C32.3 257.8 33.5 257.9 34.6 258V266.8Z" fill="#004FA6"/>
<path d="M120.8 393.2C130.796 393.2 138.9 385.096 138.9 375.1C138.9 365.104 130.796 357 120.8 357C110.804 357 102.7 365.104 102.7 375.1C102.7 385.096 110.804 393.2 120.8 393.2Z" fill="#001C3B"/>
<path d="M98.7 371.6C98.5 372.8 98.4 373.9 98.4 375.1C98.4 387.5 108.4 397.5 120.8 397.5C133.2 397.5 143.2 387.5 143.2 375.1C143.2 373.9 143.1 372.7 142.9 371.6H151.7C151.8 372.8 151.9 373.9 151.9 375.1C151.9 392.3 138 406.2 120.8 406.2C103.6 406.2 89.7 392.3 89.7 375.1C89.7 373.9 89.8 372.7 89.9 371.6H98.7Z" fill="#004FA6"/>
<path d="M178 62H64V338H178V62Z" fill="#DADADA"/>
</svg>
