{
    "/admin/js/app.js": "/admin/js/app.js?id=400e2567f8798996175f",
    "/admin/css/app.css": "/admin/css/app.css?id=514752cbb994dc960721",
    "/client/css/app.css": "/client/css/app.css?id=75da1424c751b3b93a5f",
    "/client/js/app.js": "/client/js/app.js?id=ab1cb34da9d8a0da918c"
}
